Box Geometry Model (BGM) files • rbgm
…
names(bgm)

## [1] "vertices"         "facesXverts"      "faces"            "facesXboxes"     
## [5] "boxesXverts"      "boxes"            "boundaryvertices" "extra"

Box and face attributes, and model topology

Both boxes and faces have attributes stored row-wise in the respective table.

These are the box attributes for this example

print(bgm$boxes)

## # A tibble: 35 x 9
##    label nconn  botz        area vertmix horizmix  insideX  insideY  .bx0
##    <chr> <int> <dbl>       <dbl>   <int>    <int>    <dbl>    <dbl> <dbl>
##  1 Box0      7 -53.7 9254788445.       1        1 3430169. 3073000.     0
##  2 Box1     81 -48.9 1996056923.       1        1 3498567. 3029308.     1
##  3 Box2    120 -55.7 3922348664.       1        1 3521055. 3050400.     2
##  4 Box3    105 -53.4 3576072582.       1        1 3523085. 3077300.     3
##  5 Box4     83 -30   1672921591.       1        1 3522699. 3102469.     4
##  6 Box5     12 -24.1  411048577.       1        1 3496968. 3124359.     5
##  7 Box6     16 -10.2  447377917.       1        1 3520947. 3133926.     6
##  8 Box7     18   0    402661184.       1        1 3523883. 3122610.     7
##  9 Box8     13 -15    705100219.       1        1 3562646. 3115917.     8
## 10 Box9      3  -5.4   93312196.       1        1 3581060. 3127380.     9
## # … with 25 more rows

and these are the face attributes.

print(bgm$faces)

## # A tibble: 824 x 7
##    cosine  sine  left right length  .fx0 label
##     <dbl> <dbl> <int> <int>  <dbl> <dbl> <chr>
##  1  0.112 0.994    34    32 29876.     0 face0
##  2  0.506 0.862    32    33 17891.     1 face1
##  3  0.116 0.993    34    33 10169.     2 face2
##  4  0.117 0.993    34    33   155.     3 face3
##  5  0.869 0.494    33    27  9391.     4 face4
##  6  0.118 0.993    34    27 12818.     5 face5
##  7  0.121 0.993    34    27 21316.     6 face6
##  8  0.276 0.961    32    33 25394.     7 face7
##  9  0.514 0.858    32    33  8425.     8 face8
## 10  0.136 0.991    32    30 14366.     9 face9
## # … with 814 more rows
…
